{
	"authors": [
		"Ali Akhtarzada"
	],
	"buildTypes": {
		"unittest-release": {
			"buildOptions": [
				"releaseMode",
				"inline",
				"optimize",
				"unittests"
			]
		}
	},
	"configurations": [
		{
			"name": "library",
			"targetType": "library"
		},
		{
			"importPaths": [
				"./tests"
			],
			"name": "unittest",
			"sourcePaths": [
				"./tests"
			],
			"targetType": "library"
		},
		{
			"dflags": [
				"-dip1000",
				"-dip25"
			],
			"importPaths": [
				"./tests"
			],
			"name": "unittest-safe",
			"sourcePaths": [
				"./tests"
			],
			"targetType": "library"
		},
		{
			"dflags": [
				"-dip1000",
				"-dip25"
			],
			"dflags-ldc": [
				"-fsanitize=address",
				"-frame-pointer=all"
			],
			"importPaths": [
				"./tests"
			],
			"name": "unittest-safe-asan",
			"sourcePaths": [
				"./tests"
			],
			"targetType": "library"
		}
	],
	"copyright": "Copyright © 2018, Ali Akhtarzada",
	"dependencies": {
		"bolts": "~>1.3.0"
	},
	"description": "An optional/maybe type with safe dispatchingrange semantics",
	"importPaths": [
		"source/"
	],
	"license": "MIT",
	"name": "optional",
	"sourcePaths": [
		"source/"
	],
	"targetPath": "bin",
	"version": "1.3.0"
}